{
    "type": "application",
    "source-directories": [
        "src"
    ],
    "elm-version": "0.19.0",
    "dependencies": {
        "direct": {
            "elm/browser": "1.0.1",
            "elm/core": "1.0.0",
            "elm/html": "1.0.0",
            "elm/http": "1.0.0",
            "elm/json": "1.1.3",
            "isaacseymour/deprecated-time": "1.0.0",
            "krisajenkins/remotedata": "5.0.0"
        },
        "indirect": {
            "elm/parser": "1.1.0",
            "elm/time": "1.0.0",
            "elm/url": "1.0.0",
            "elm/virtual-dom": "1.0.2",
            "elm-community/list-extra": "8.1.0"
        }
    },
    "test-dependencies": {
        "direct": {},
        "indirect": {}
    }
}